Lab 1: Census Data Quality for Policy Decisions – Maude Ceruso - MUSA 5080 Portfolio
…
# A tibble: 6 × 7
  GEOID NAME                     medHHincE medHHincM totpopE totpopM county_name
  <chr> <chr>                        <dbl>     <dbl>   <dbl>   <dbl> <chr>      
1 36001 Albany County, New York      78829      2049  315041      NA Albany     
2 36003 Allegany County, New Yo…     58725      1965   47222      NA Allegany   
3 36005 Bronx County, New York       47036       890 1443229      NA Bronx      
4 36007 Broome County, New York      58317      1761  198365      NA Broome     
5 36009 Cattaraugus County, New…     56889      1778   77000      NA Cattaraugus
6 36011 Cayuga County, New York      63227      2736   76171      NA Cayuga     

select(ny_clean, NAME, county_name)

# A tibble: 62 × 2
   NAME                         county_name
   <chr>                        <chr>      
 1 Albany County, New York      Albany     
 2 Allegany County, New York    Allegany   
 3 Bronx County, New York       Bronx      
 4 Broome County, New York      Broome     
 5 Cattaraugus County, New York Cattaraugus
 6 Cayuga County, New York      Cayuga     
 7 Chautauqua County, New York  Chautauqua 
 8 Chemung County, New York     Chemung    
 9 Chenango County, New York    Chenango   
10 Clinton County, New York     Clinton    
# ℹ 52 more rows
…
# Add a new column with algorithm recommendations using case_when():
# - High Confidence: "Safe for algorithmic decisions"
# - Moderate Confidence: "Use with caution - monitor outcomes"  
# - Low Confidence: "Requires manual review or additional data"
summary_table1 <- summary_table %>%
  mutate(recommendation = case_when(
    moe_percentage < 5 ~ "Safe for algorithmic decisions",
    moe_percentage >= 5 & moe_percentage <= 10 ~ "Use with caution - monitor outcomes",
    moe_percentage > 10 ~ "Requires manual review or additional data"
  ))

summary_table1

# A tibble: 62 × 5
   county_name medHHincE moe_percentage reliability     recommendation          
   <chr>           <dbl>          <dbl> <chr>           <chr>                   
 1 Albany          78829           2.6  High Confidence Safe for algorithmic de…
 2 Allegany        58725           3.35 High Confidence Safe for algorithmic de…
 3 Bronx           47036           1.89 High Confidence Safe for algorithmic de…
 4 Broome          58317           3.02 High Confidence Safe for algorithmic de…
 5 Cattaraugus     56889           3.13 High Confidence Safe for algorithmic de…
 6 Cayuga          63227           4.33 High Confidence Safe for algorithmic de…
 7 Chautauqua      54625           3.21 High Confidence Safe for algorithmic de…
 8 Chemung         61358           4.03 High Confidence Safe for algorithmic de…
 9 Chenango        61741           4.09 High Confidence Safe for algorithmic de…
10 Clinton         67097           4.18 High Confidence Safe for algorithmic de…
# ℹ 52 more rows
…
